%YAML 1.1
%TAG !u! tag:unity3d.com,2011:
--- !u!114 &11400000
MonoBehaviour:
  m_ObjectHideFlags: 0
  m_CorrespondingSourceObject: {fileID: 0}
  m_PrefabInstance: {fileID: 0}
  m_PrefabAsset: {fileID: 0}
  m_GameObject: {fileID: 0}
  m_Enabled: 1
  m_EditorHideFlags: 0
  m_Script: {fileID: 11500000, guid: 0b0cb9508d4623e419b2f226ba88b1f4, type: 3}
  m_Name: Speedies Attack 1
  m_EditorClassIdentifier: 
  punchDamage: 20
  punchCriticalDamage: 20
  punchCriticalChance: 10
  kickDamage: 40
  kickCriticalDamage: 20
  kickCriticalChance: 50
  nSpawns: 1
