%YAML 1.1
%TAG !u! tag:unity3d.com,2011:
--- !u!114 &11400000
MonoBehaviour:
  m_ObjectHideFlags: 0
  m_CorrespondingSourceObject: {fileID: 0}
  m_PrefabInstance: {fileID: 0}
  m_PrefabAsset: {fileID: 0}
  m_GameObject: {fileID: 0}
  m_Enabled: 1
  m_EditorHideFlags: 0
  m_Script: {fileID: 11500000, guid: 7e1be7dcfcc701d4fb509493aff9563b, type: 3}
  m_Name: Bolts Attack
  m_EditorClassIdentifier: 
  boltAttackSpeed: 1
  boltChargingTime: 0.8
  boltDamage: 100
  maxBolts: 10
  minBolts: 5
  bulletMovementSpeed: 18
  bulletAttackSpeed: 0.5
