%YAML 1.1
%TAG !u! tag:unity3d.com,2011:
--- !u!114 &11400000
MonoBehaviour:
  m_ObjectHideFlags: 0
  m_CorrespondingSourceObject: {fileID: 0}
  m_PrefabInstance: {fileID: 0}
  m_PrefabAsset: {fileID: 0}
  m_GameObject: {fileID: 0}
  m_Enabled: 1
  m_EditorHideFlags: 0
  m_Script: {fileID: 11500000, guid: 7825426cfcda83a4aaf1a7145242a3fd, type: 3}
  m_Name: Rocks Attack 1
  m_EditorClassIdentifier: 
  attackSpeed: 0.8
  hitDelay: 0.7
  damage: 120
  fractionDamage: 20
  rocks: []
